start_appearance	harvestChance	convert_item_template	initial_template	hash_initial_template	mutated_template_1	hash_mutated_template_1	mutated_template_2	hash_mutated_template_2	mutated_template_3	hash_mutated_template_3	pcd_template_appearance	incubator_template_appearance
s	i[40]	s	s	h	s	h	s	h	s	h	s	s
appearance/angler.sat		object/tangible/item/beast/converted_angler_decoration.iff	object/mobile/beast_master/bm_angler.iff	object/mobile/beast_master/bm_angler.iff	object/mobile/beast_master/bm_angler.iff	object/mobile/beast_master/bm_angler.iff	object/mobile/beast_master/bm_rancor.iff	object/mobile/beast_master/bm_rancor.iff	object/mobile/beast_master/bm_mutated_rancor.iff	object/mobile/beast_master/bm_mutated_rancor.iff	appearance/noxious_vrelt_scavenger.sat	appearance/stintaril.sat
appearance/bageraset.sat		object/tangible/item/beast/converted_bageraset_decoration.iff	object/mobile/beast_master/bm_bageraset.iff	object/mobile/beast_master/bm_bageraset.iff								
appearance/bantha.sat		object/tangible/item/beast/converted_bantha_decoration.iff	object/mobile/beast_master/bm_bantha.iff	object/mobile/beast_master/bm_bantha.iff								
appearance/bark_mite.sat		object/tangible/item/beast/converted_bark_mite_decoration.iff	object/mobile/beast_master/bm_bark_mite.iff	object/mobile/beast_master/bm_bark_mite.iff	object/mobile/beast_master/bm_bark_mite.iff	object/mobile/beast_master/bm_bark_mite.iff	object/mobile/beast_master/bm_kubaza_beetle.iff	object/mobile/beast_master/bm_kubaza_beetle.iff				
appearance/bearded_jax.sat		object/tangible/item/beast/converted_bearded_jax_decoration.iff	object/mobile/beast_master/bm_bearded_jax.iff	object/mobile/beast_master/bm_bearded_jax.iff	object/mobile/beast_master/bm_bearded_jax.iff	object/mobile/beast_master/bm_bearded_jax.iff	object/mobile/beast_master/bm_mutated_jax.iff	object/mobile/beast_master/bm_mutated_jax.iff				
appearance/blistmok.sat	0	object/tangible/item/beast/converted_blistmok_decoration.iff	object/mobile/beast_master/bm_blistmok.iff	object/mobile/beast_master/bm_blistmok.iff								
appearance/blurrg.sat		object/tangible/item/beast/converted_blurrg_decoration.iff	object/mobile/beast_master/bm_blurrg.iff	object/mobile/beast_master/bm_blurrg.iff	object/mobile/beast_master/bm_blurrg.iff	object/mobile/beast_master/bm_blurrg.iff	object/mobile/beast_master/bm_blistmok.iff	object/mobile/beast_master/bm_blistmok.iff				
appearance/boar_wolf.sat		object/tangible/item/beast/converted_boar_wolf_decoration.iff	object/mobile/beast_master/bm_boar_wolf.iff	object/mobile/beast_master/bm_boar_wolf.iff	object/mobile/beast_master/bm_boar_wolf.iff	object/mobile/beast_master/bm_boar_wolf.iff	object/mobile/beast_master/bm_mutated_boar.iff	object/mobile/beast_master/bm_mutated_boar.iff				
appearance/bocatt.sat		object/tangible/item/beast/converted_bocatt_decoration.iff	object/mobile/beast_master/bm_bocatt.iff	object/mobile/beast_master/bm_bocatt.iff								
appearance/bol.sat		object/tangible/item/beast/converted_bol_decoration.iff	object/mobile/beast_master/bm_bol.iff	object/mobile/beast_master/bm_bol.iff								
appearance/bolle_bol.sat		object/tangible/item/beast/converted_bolle_bol_decoration.iff	object/mobile/beast_master/bm_bolle_bol.iff	object/mobile/beast_master/bm_bolle_bol.iff								
appearance/bolma.sat		object/tangible/item/beast/converted_bolma_decoration.iff	object/mobile/beast_master/bm_bolma.iff	object/mobile/beast_master/bm_bolma.iff								
appearance/bolotaur.sat	0	object/tangible/item/beast/converted_bolotaur_decoration.iff	object/mobile/beast_master/bm_bolotaur.iff	object/mobile/beast_master/bm_bolotaur.iff								
appearance/bordok.sat		object/tangible/item/beast/converted_bordok_decoration.iff	object/mobile/beast_master/bm_bordok.iff	object/mobile/beast_master/bm_bordok.iff								
appearance/borgle.sat		object/tangible/item/beast/converted_borgle_decoration.iff	object/mobile/beast_master/bm_borgle.iff	object/mobile/beast_master/bm_borgle.iff	object/mobile/beast_master/bm_borgle.iff	object/mobile/beast_master/bm_borgle.iff	object/mobile/beast_master/bm_mutated_borgax.iff	object/mobile/beast_master/bm_mutated_borgax.iff
appearance/brackaset.sat		object/tangible/item/beast/converted_brackaset_decoration.iff	object/mobile/beast_master/bm_brackaset.iff	object/mobile/beast_master/bm_brackaset.iff				
appearance/capper_spineflap.sat		object/tangible/item/beast/converted_capper_spineflap_decoration.iff	object/mobile/beast_master/bm_capper_spineflap.iff	object/mobile/beast_master/bm_capper_spineflap.iff				
appearance/carrion_spat.sat		object/tangible/item/beast/converted_carrion_spat_decoration.iff	object/mobile/beast_master/bm_carrion_spat.iff	object/mobile/beast_master/bm_carrion_spat.iff				
appearance/choku.sat		object/tangible/item/beast/converted_choku_decoration.iff	object/mobile/beast_master/bm_choku.iff	object/mobile/beast_master/bm_choku.iff				
appearance/chuba.sat		object/tangible/item/beast/converted_chuba_decoration.iff	object/mobile/beast_master/bm_chuba.iff	object/mobile/beast_master/bm_chuba.iff	object/mobile/beast_master/bm_chuba.iff	object/mobile/beast_master/bm_chuba.iff	object/mobile/beast_master/bm_mutated_chuba_fly.iff	object/mobile/beast_master/bm_mutated_chuba_fly.iff
appearance/condor_dragon.sat		object/tangible/item/beast/converted_condor_dragon_decoration.iff	object/mobile/beast_master/bm_condor_dragon.iff	object/mobile/beast_master/bm_condor_dragon.iff				
appearance/corellian_butterfly.sat		object/tangible/item/beast/converted_corellian_butterfly_decoration.iff	object/mobile/beast_master/bm_corellian_butterfly.iff	object/mobile/beast_master/bm_corellian_butterfly.iff	object/mobile/beast_master/bm_corellian_butterfly.iff	object/mobile/beast_master/bm_corellian_butterfly.iff	object/mobile/beast_master/bm_mutated_chuba_fly.iff	object/mobile/beast_master/bm_mutated_chuba_fly.iff
appearance/corellian_sand_panther.sat		object/tangible/item/beast/converted_corellian_sand_panther_decoration.iff	object/mobile/beast_master/bm_corellian_sand_panther.iff	object/mobile/beast_master/bm_corellian_sand_panther.iff	object/mobile/beast_master/bm_corellian_sand_panther.iff	object/mobile/beast_master/bm_corellian_sand_panther.iff	object/mobile/beast_master/bm_mutated_cat.iff	object/mobile/beast_master/bm_mutated_cat.iff
appearance/corellian_slice_hound.sat		object/tangible/item/beast/converted_corellian_slice_hound_decoration.iff	object/mobile/beast_master/bm_corellian_slice_hound.iff	object/mobile/beast_master/bm_corellian_slice_hound.iff	object/mobile/beast_master/bm_corellian_slice_hound.iff	object/mobile/beast_master/bm_corellian_slice_hound.iff	object/mobile/beast_master/bm_mutated_slice_hound.iff	object/mobile/beast_master/bm_mutated_slice_hound.iff
appearance/crystal_snake.sat	0	object/tangible/item/beast/converted_crystal_snake_decoration.iff	object/mobile/beast_master/bm_crystal_snake.iff	object/mobile/beast_master/bm_crystal_snake.iff	object/mobile/beast_master/bm_crystal_snake.iff	object/mobile/beast_master/bm_crystal_snake.iff	object/mobile/beast_master/bm_tanray.iff	object/mobile/beast_master/bm_tanray.iff
appearance/cu_pa.sat		object/tangible/item/beast/converted_cu_pa_decoration.iff	object/mobile/beast_master/bm_cu_pa.iff	object/mobile/beast_master/bm_cu_pa.iff	object/mobile/beast_master/bm_cu_pa.iff	object/mobile/beast_master/bm_cu_pa.iff	object/mobile/beast_master/bm_mutated_cu_pa.iff	object/mobile/beast_master/bm_mutated_cu_pa.iff
appearance/dalyrake.sat		object/tangible/item/beast/converted_dalyrake_decoration.iff	object/mobile/beast_master/bm_dalyrake.iff	object/mobile/beast_master/bm_dalyrake.iff	object/mobile/beast_master/bm_dalyrake.iff	object/mobile/beast_master/bm_dalyrake.iff	object/mobile/beast_master/bm_jundak.iff	object/mobile/beast_master/bm_jundak.iff
appearance/dewback.sat		object/tangible/item/beast/converted_dewback_decoration.iff	object/mobile/beast_master/bm_dewback.iff	object/mobile/beast_master/bm_dewback.iff	object/mobile/beast_master/bm_dewback.iff	object/mobile/beast_master/bm_dewback.iff	object/mobile/beast_master/bm_mutated_dewback.iff	object/mobile/beast_master/bm_mutated_dewback.iff
appearance/dune_lizard.sat		object/tangible/item/beast/converted_dune_lizard_decoration.iff	object/mobile/beast_master/bm_dune_lizard.iff	object/mobile/beast_master/bm_dune_lizard.iff				
appearance/durni.sat		object/tangible/item/beast/converted_durni_decoration.iff	object/mobile/beast_master/bm_durni.iff	object/mobile/beast_master/bm_durni.iff				
appearance/dwarf_nuna.sat		object/tangible/item/beast/converted_dwarf_nuna_decoration.iff	object/mobile/beast_master/bm_dwarf_nuna.iff	object/mobile/beast_master/bm_dwarf_nuna.iff
appearance/eopie.sat		object/tangible/item/beast/converted_eopie_decoration.iff	object/mobile/beast_master/bm_eopie.iff	object/mobile/beast_master/bm_eopie.iff
appearance/falumpaset.sat		object/tangible/item/beast/converted_falumpaset_decoration.iff	object/mobile/beast_master/bm_falumpaset.iff	object/mobile/beast_master/bm_falumpaset.iff
appearance/fambaa.sat		object/tangible/item/beast/converted_fambaa_decoration.iff	object/mobile/beast_master/bm_fambaa.iff	object/mobile/beast_master/bm_fambaa.iff
appearance/fanned_rawl.sat	0	object/tangible/item/beast/converted_fanned_rawl_decoration.iff	object/mobile/beast_master/bm_fanned_rawl.iff	object/mobile/beast_master/bm_fanned_rawl.iff
appearance/flewt.sat		object/tangible/item/beast/converted_flewt_decoration.iff	object/mobile/beast_master/bm_flewt.iff	object/mobile/beast_master/bm_flewt.iff
appearance/flit.sat		object/tangible/item/beast/converted_flit_decoration.iff	object/mobile/beast_master/bm_flit.iff	object/mobile/beast_master/bm_flit.iff
appearance/fynock.sat		object/tangible/item/beast/converted_fynock_decoration.iff	object/mobile/beast_master/bm_fynock.iff	object/mobile/beast_master/bm_fynock.iff
appearance/gackle_bat.sat		object/tangible/item/beast/converted_gackle_bat_decoration.iff	object/mobile/beast_master/bm_gackle_bat.iff	object/mobile/beast_master/bm_gackle_bat.iff
appearance/gaping_spider.sat		object/tangible/item/beast/converted_gaping_spider_decoration.iff	object/mobile/beast_master/bm_gaping_spider.iff	object/mobile/beast_master/bm_gaping_spider.iff
appearance/gnort.sat		object/tangible/item/beast/converted_gnort_decoration.iff	object/mobile/beast_master/bm_gnort.iff	object/mobile/beast_master/bm_gnort.iff
appearance/graul.sat	0	object/tangible/item/beast/converted_graul_decoration.iff	object/mobile/beast_master/bm_graul.iff	object/mobile/beast_master/bm_graul.iff
appearance/gronda.sat		object/tangible/item/beast/converted_gronda_decoration.iff	object/mobile/beast_master/bm_gronda.iff	object/mobile/beast_master/bm_gronda.iff
appearance/gualama.sat		object/tangible/item/beast/converted_gualama_decoration.iff	object/mobile/beast_master/bm_gualama.iff	object/mobile/beast_master/bm_gualama.iff
appearance/gubbur.sat		object/tangible/item/beast/converted_gubbur_decoration.iff	object/mobile/beast_master/bm_gubbur.iff	object/mobile/beast_master/bm_gubbur.iff
appearance/guf_drolg.sat		object/tangible/item/beast/converted_guf_drolg_decoration.iff	object/mobile/beast_master/bm_guf_drolg.iff	object/mobile/beast_master/bm_guf_drolg.iff
appearance/gulginaw.sat		object/tangible/item/beast/converted_gulginaw_decoration.iff	object/mobile/beast_master/bm_gulginaw.iff	object/mobile/beast_master/bm_gulginaw.iff	object/mobile/beast_master/bm_gulginaw.iff	object/mobile/beast_master/bm_gulginaw.iff	object/mobile/beast_master/bm_mutated_griffon.iff	object/mobile/beast_master/bm_mutated_griffon.iff
appearance/gurk.sat		object/tangible/item/beast/converted_gurk_decoration.iff	object/mobile/beast_master/bm_gurk.iff	object/mobile/beast_master/bm_gurk.iff				
appearance/gurnaset.sat		object/tangible/item/beast/converted_gurnaset_decoration.iff	object/mobile/beast_master/bm_gurnaset.iff	object/mobile/beast_master/bm_gurnaset.iff				
appearance/gurreck.sat		object/tangible/item/beast/converted_gurreck_decoration.iff	object/mobile/beast_master/bm_gurreck.iff	object/mobile/beast_master/bm_gurreck.iff				
appearance/hanadak.sat		object/tangible/item/beast/converted_hanadak_decoration.iff	object/mobile/beast_master/bm_hanadak.iff	object/mobile/beast_master/bm_hanadak.iff				
appearance/hermit_spider.sat		object/tangible/item/beast/converted_hermit_spider_decoration.iff	object/mobile/beast_master/bm_hermit_spider.iff	object/mobile/beast_master/bm_hermit_spider.iff				
appearance/horned_krevol.sat		object/tangible/item/beast/converted_horned_krevol_decoration.iff	object/mobile/beast_master/bm_horned_krevol.iff	object/mobile/beast_master/bm_horned_krevol.iff				
appearance/horned_rasp.sat	0	object/tangible/item/beast/converted_horned_rasp_decoration.iff	object/mobile/beast_master/bm_horned_rasp.iff	object/mobile/beast_master/bm_horned_rasp.iff				
appearance/huf_dun.sat		object/tangible/item/beast/converted_huf_dun_decoration.iff	object/mobile/beast_master/bm_huf_dun.iff	object/mobile/beast_master/bm_huf_dun.iff				
appearance/huurton.sat		object/tangible/item/beast/converted_huurton_decoration.iff	object/mobile/beast_master/bm_huurton.iff	object/mobile/beast_master/bm_huurton.iff				
appearance/ikopi.sat		object/tangible/item/beast/converted_ikopi_decoration.iff	object/mobile/beast_master/bm_ikopi.iff	object/mobile/beast_master/bm_ikopi.iff				
appearance/jundak.sat	0	object/tangible/item/beast/converted_jundak_decoration.iff	object/mobile/beast_master/bm_jundak.iff	object/mobile/beast_master/bm_jundak.iff				
appearance/kaadu.sat		object/tangible/item/beast/converted_kaadu_decoration.iff	object/mobile/beast_master/bm_kaadu.iff	object/mobile/beast_master/bm_kaadu.iff				
appearance/kai_tok.sat		object/tangible/item/beast/converted_kai_tok_decoration.iff	object/mobile/beast_master/bm_kai_tok.iff	object/mobile/beast_master/bm_kai_tok.iff	object/mobile/beast_master/bm_kai_tok.iff	object/mobile/beast_master/bm_kai_tok.iff	object/mobile/beast_master/bm_mutated_griffon.iff	object/mobile/beast_master/bm_mutated_griffon.iff
appearance/kashyyyk_bantha.sat		object/tangible/item/beast/converted_kashyyyk_bantha_decoration.iff	object/mobile/beast_master/bm_kashyyyk_bantha.iff	object/mobile/beast_master/bm_kashyyyk_bantha.iff				
appearance/kima.sat		object/tangible/item/beast/converted_kima_decoration.iff	object/mobile/beast_master/bm_kima.iff	object/mobile/beast_master/bm_kima.iff				
appearance/kimogila.sat	0	object/tangible/item/beast/converted_kimogila_decoration.iff	object/mobile/beast_master/bm_kimogila.iff	object/mobile/beast_master/bm_kimogila.iff						
appearance/kliknik.sat		object/tangible/item/beast/converted_kliknik_decoration.iff	object/mobile/beast_master/bm_kliknik.iff	object/mobile/beast_master/bm_kliknik.iff	object/mobile/beast_master/bm_kliknik.iff	object/mobile/beast_master/bm_kliknik.iff	object/mobile/beast_master/bm_kliknik.iff	object/mobile/beast_master/bm_kliknik.iff	object/mobile/beast_master/bm_acklay.iff	object/mobile/beast_master/bm_acklay.iff
appearance/krahbu.sat		object/tangible/item/beast/converted_krahbu_decoration.iff	object/mobile/beast_master/bm_krahbu.iff	object/mobile/beast_master/bm_krahbu.iff						
appearance/kubaza_beetle.sat	0	object/tangible/item/beast/converted_kubaza_beetle_decoration.iff	object/mobile/beast_master/bm_kubaza_beetle.iff	object/mobile/beast_master/bm_kubaza_beetle.iff						
appearance/kusak.sat		object/tangible/item/beast/converted_kusak_decoration.iff	object/mobile/beast_master/bm_kusak.iff	object/mobile/beast_master/bm_kusak.iff						
appearance/kwi.sat		object/tangible/item/beast/converted_kwi_decoration.iff	object/mobile/beast_master/bm_kwi.iff	object/mobile/beast_master/bm_kwi.iff						
appearance/langlatch.sat		object/tangible/item/beast/converted_langlatch_decoration.iff	object/mobile/beast_master/bm_langlatch.iff	object/mobile/beast_master/bm_langlatch.iff						
appearance/lantern_bird.sat		object/tangible/item/beast/converted_lantern_bird_decoration.iff	object/mobile/beast_master/bm_lantern_bird.iff	object/mobile/beast_master/bm_lantern_bird.iff						
appearance/lava_flea.sat		object/tangible/item/beast/converted_lava_flea_decoration.iff	object/mobile/beast_master/bm_lava_flea.iff	object/mobile/beast_master/bm_lava_flea.iff						
appearance/malkloc.sat		object/tangible/item/beast/converted_malkloc_decoration.iff	object/mobile/beast_master/bm_malkloc.iff	object/mobile/beast_master/bm_malkloc.iff						
appearance/mamien.sat		object/tangible/item/beast/converted_mamien_decoration.iff	object/mobile/beast_master/bm_mamien.iff	object/mobile/beast_master/bm_mamien.iff	object/mobile/beast_master/bm_mamien.iff	object/mobile/beast_master/bm_mamien.iff	object/mobile/beast_master/bm_graul.iff	object/mobile/beast_master/bm_graul.iff		
appearance/mawgax.sat		object/tangible/item/beast/converted_mawgax_decoration.iff	object/mobile/beast_master/bm_mawgax.iff	object/mobile/beast_master/bm_mawgax.iff	object/mobile/beast_master/bm_mawgax.iff	object/mobile/beast_master/bm_mawgax.iff	object/mobile/beast_master/bm_mutated_borgax.iff	object/mobile/beast_master/bm_mutated_borgax.iff		
appearance/merek.sat		object/tangible/item/beast/converted_merek_decoration.iff	object/mobile/beast_master/bm_merek.iff	object/mobile/beast_master/bm_merek.iff						
appearance/mott.sat		object/tangible/item/beast/converted_mott_decoration.iff	object/mobile/beast_master/bm_mott.iff	object/mobile/beast_master/bm_mott.iff	object/mobile/beast_master/bm_mott.iff	object/mobile/beast_master/bm_mott.iff	object/mobile/beast_master/bm_mutated_boar.iff	object/mobile/beast_master/bm_mutated_boar.iff		
appearance/murra.sat		object/tangible/item/beast/converted_murra_decoration.iff	object/mobile/beast_master/bm_murra.iff	object/mobile/beast_master/bm_murra.iff						
appearance/mynock.sat		object/tangible/item/beast/converted_mynock_decoration.iff	object/mobile/beast_master/bm_mynock.iff	object/mobile/beast_master/bm_mynock.iff						
appearance/narglatch.sat		object/tangible/item/beast/converted_narglatch_decoration.iff	object/mobile/beast_master/bm_narglatch.iff	object/mobile/beast_master/bm_narglatch.iff	object/mobile/beast_master/bm_narglatch.iff	object/mobile/beast_master/bm_narglatch.iff	object/mobile/beast_master/bm_xandank.iff	object/mobile/beast_master/bm_xandank.iff		
appearance/nuna.sat		object/tangible/item/beast/converted_nuna_decoration.iff	object/mobile/beast_master/bm_nuna.iff	object/mobile/beast_master/bm_nuna.iff						
appearance/peko_peko.sat		object/tangible/item/beast/converted_peko_peko_decoration.iff	object/mobile/beast_master/bm_peko_peko.iff	object/mobile/beast_master/bm_peko_peko.iff						
appearance/perlek.sat		object/tangible/item/beast/converted_perelek_decoration.iff	object/mobile/beast_master/bm_perlek.iff	object/mobile/beast_master/bm_perlek.iff						
appearance/piket.sat		object/tangible/item/beast/converted_piket_decoration.iff	object/mobile/beast_master/bm_piket.iff	object/mobile/beast_master/bm_piket.iff						
appearance/plumed_rasp.sat	0	object/tangible/item/beast/converted_plumed_rasp_decoration.iff	object/mobile/beast_master/bm_plumed_rasp.iff	object/mobile/beast_master/bm_plumed_rasp.iff						
appearance/pugoriss.sat		object/tangible/item/beast/converted_pugoriss_decoration.iff	object/mobile/beast_master/bm_pugoriss.iff	object/mobile/beast_master/bm_pugoriss.iff						
appearance/purbole.sat		object/tangible/item/beast/converted_purbole_decoration.iff	object/mobile/beast_master/bm_purbole.iff	object/mobile/beast_master/bm_purbole.iff						
appearance/quenker.sat		object/tangible/item/beast/converted_quenker_decoration.iff	object/mobile/beast_master/bm_quenker.iff	object/mobile/beast_master/bm_quenker.iff	object/mobile/beast_master/bm_quenker.iff	object/mobile/beast_master/bm_quenker.iff	object/mobile/beast_master/bm_mutated_quenker.iff	object/mobile/beast_master/bm_mutated_quenker.iff		
appearance/rancor.sat	0	object/tangible/item/beast/converted_rancor_decoration.iff	object/mobile/beast_master/bm_rancor.iff	object/mobile/beast_master/bm_rancor.iff	object/mobile/beast_master/bm_rancor.iff	object/mobile/beast_master/bm_rancor.iff	object/mobile/beast_master/bm_rancor.iff	object/mobile/beast_master/bm_rancor.iff	object/mobile/beast_master/bm_mutated_rancor.iff	object/mobile/beast_master/bm_mutated_rancor.iff
appearance/reptilian_flyer.sat		object/tangible/item/beast/converted_reptilian_flyer_decoration.iff	object/mobile/beast_master/bm_reptilian_flier.iff	object/mobile/beast_master/bm_reptilian_flier.iff						
appearance/roba.sat		object/tangible/item/beast/converted_roba_decoration.iff	object/mobile/beast_master/bm_roba.iff	object/mobile/beast_master/bm_roba.iff	object/mobile/beast_master/bm_roba.iff	object/mobile/beast_master/bm_roba.iff	object/mobile/beast_master/bm_mutated_boar.iff	object/mobile/beast_master/bm_mutated_boar.iff		
appearance/rock_mite.sat		object/tangible/item/beast/converted_rock_mite_decoration.iff	object/mobile/beast_master/bm_rock_mite.iff	object/mobile/beast_master/bm_rock_mite.iff	object/mobile/beast_master/bm_rock_mite.iff	object/mobile/beast_master/bm_rock_mite.iff	object/mobile/beast_master/bm_kubaza_beetle.iff	object/mobile/beast_master/bm_kubaza_beetle.iff		
appearance/ronto.sat		object/tangible/item/beast/converted_ronto_decoration.iff	object/mobile/beast_master/bm_ronto.iff	object/mobile/beast_master/bm_ronto.iff						
appearance/salt_mynock.sat		object/tangible/item/beast/converted_salt_mynock_decoration.iff	object/mobile/beast_master/bm_salt_mynock.iff	object/mobile/beast_master/bm_salt_mynock.iff						
appearance/sharnaff.sat		object/tangible/item/beast/converted_sharnaff_decoration.iff	object/mobile/beast_master/bm_sharnaff.iff	object/mobile/beast_master/bm_sharnaff.iff						
appearance/shaupaut.sat		object/tangible/item/beast/converted_shaupaut_decoration.iff	object/mobile/beast_master/bm_shaupaut.iff	object/mobile/beast_master/bm_shaupaut.iff						
appearance/shear_mite.sat		object/tangible/item/beast/converted_shear_mite_decoration.iff	object/mobile/beast_master/bm_shear_mite.iff	object/mobile/beast_master/bm_shear_mite.iff						
appearance/skreeg.sat		object/tangible/item/beast/converted_skreeg_decoration.iff	object/mobile/beast_master/bm_skreeg.iff	object/mobile/beast_master/bm_skreeg.iff						
appearance/snorbal.sat		object/tangible/item/beast/converted_snorbal_decoration.iff	object/mobile/beast_master/bm_snorbal.iff	object/mobile/beast_master/bm_snorbal.iff						
appearance/spined_puc.sat		object/tangible/item/beast/converted_spined_puc_decoration.iff	object/mobile/beast_master/bm_spined_puc.iff	object/mobile/beast_master/bm_spined_puc.iff						
appearance/spined_snake.sat	0	object/tangible/item/beast/converted_spined_snake_decoration.iff	object/mobile/beast_master/bm_spined_snake.iff	object/mobile/beast_master/bm_spined_snake.iff	object/mobile/beast_master/bm_spined_snake.iff	object/mobile/beast_master/bm_spined_snake.iff	object/mobile/beast_master/bm_tanray.iff	object/mobile/beast_master/bm_tanray.iff		
appearance/squall.sat		object/tangible/item/beast/converted_squall_decoration.iff	object/mobile/beast_master/bm_squall.iff	object/mobile/beast_master/bm_squall.iff						
appearance/squill.sat		object/tangible/item/beast/converted_squill_decoration.iff	object/mobile/beast_master/bm_squill.iff	object/mobile/beast_master/bm_squill.iff	object/mobile/beast_master/bm_squill.iff	object/mobile/beast_master/bm_squill.iff	object/mobile/beast_master/bm_squill.iff	object/mobile/beast_master/bm_squill.iff	object/mobile/beast_master/bm_mutated_varasquactyl.iff	object/mobile/beast_master/bm_mutated_varasquactyl.iff
appearance/stintaril.sat		object/tangible/item/beast/converted_stintaril_decoration.iff	object/mobile/beast_master/bm_stintaril.iff	object/mobile/beast_master/bm_stintaril.iff						
appearance/swirl_prong.sat		object/tangible/item/beast/converted_swirl_prong_decoration.iff	object/mobile/beast_master/bm_swirl_prong.iff	object/mobile/beast_master/bm_swirl_prong.iff						
appearance/tanc_mite.sat		object/tangible/item/beast/converted_tanc_mite_decoration.iff	object/mobile/beast_master/bm_tanc_mite.iff	object/mobile/beast_master/bm_tanc_mite.iff						
appearance/tanray.sat	0	object/tangible/item/beast/converted_tanray_decoration.iff	object/mobile/beast_master/bm_tanray.iff	object/mobile/beast_master/bm_tanray.iff						
appearance/thune.sat		object/tangible/item/beast/converted_thune_decoration.iff	object/mobile/beast_master/bm_thune.iff	object/mobile/beast_master/bm_thune.iff						
appearance/torton.sat		object/tangible/item/beast/converted_torton_decoration.iff	object/mobile/beast_master/bm_torton.iff	object/mobile/beast_master/bm_torton.iff						
appearance/tulrus.sat		object/tangible/item/beast/converted_tulrus_decoration.iff	object/mobile/beast_master/bm_tulrus.iff	object/mobile/beast_master/bm_tulrus.iff						
appearance/tusk_cat.sat		object/tangible/item/beast/converted_tusk_cat_decoration.iff	object/mobile/beast_master/bm_tusk_cat.iff	object/mobile/beast_master/bm_tusk_cat.iff	object/mobile/beast_master/bm_tusk_cat.iff	object/mobile/beast_master/bm_tusk_cat.iff	object/mobile/beast_master/bm_xandank.iff	object/mobile/beast_master/bm_xandank.iff		
appearance/tybis.sat		object/tangible/item/beast/converted_tybis_decoration.iff	object/mobile/beast_master/bm_tybis.iff	object/mobile/beast_master/bm_tybis.iff						
appearance/varactyl.sat		object/tangible/item/beast/converted_varactyl_decoration.iff	object/mobile/beast_master/bm_varactyl.iff	object/mobile/beast_master/bm_varactyl.iff	object/mobile/beast_master/bm_varactyl.iff	object/mobile/beast_master/bm_varactyl.iff	object/mobile/beast_master/bm_varactyl.iff	object/mobile/beast_master/bm_varactyl.iff	object/mobile/beast_master/bm_mutated_varasquactyl.iff	object/mobile/beast_master/bm_mutated_varasquactyl.iff
appearance/veermok.sat		object/tangible/item/beast/converted_veermok_decoration.iff	object/mobile/beast_master/bm_veermok.iff	object/mobile/beast_master/bm_veermok.iff						
appearance/verne.sat		object/tangible/item/beast/converted_verne_decoration.iff	object/mobile/beast_master/bm_verne.iff	object/mobile/beast_master/bm_verne.iff						
appearance/vesp.sat		object/tangible/item/beast/converted_vesp_decoration.iff	object/mobile/beast_master/bm_vesp.iff	object/mobile/beast_master/bm_vesp.iff						
appearance/vir_vur.sat		object/tangible/item/beast/converted_vir_vur_decoration.iff	object/mobile/beast_master/bm_vir_vur.iff	object/mobile/beast_master/bm_vir_vur.iff						
appearance/voritor_lizard.sat		object/tangible/item/beast/converted_voritor_lizard_decoration.iff	object/mobile/beast_master/bm_voritor_lizard.iff	object/mobile/beast_master/bm_voritor_lizard.iff						
appearance/vynock.sat		object/tangible/item/beast/converted_vynock_decoration.iff	object/mobile/beast_master/bm_vynock.iff	object/mobile/beast_master/bm_vynock.iff						
appearance/womp_rat.sat		object/tangible/item/beast/converted_womp_rat_decoration.iff	object/mobile/beast_master/bm_womp_rat.iff	object/mobile/beast_master/bm_womp_rat.iff						
appearance/woolamander.sat		object/tangible/item/beast/converted_woolamander_decoration.iff	object/mobile/beast_master/bm_woolamander.iff	object/mobile/beast_master/bm_woolamander.iff						
appearance/worrt.sat		object/tangible/item/beast/converted_worrt_decoration.iff	object/mobile/beast_master/bm_worrt.iff	object/mobile/beast_master/bm_worrt.iff						
appearance/xandank.sat	0	object/tangible/item/beast/converted_xandank_decoration.iff	object/mobile/beast_master/bm_xandank.iff	object/mobile/beast_master/bm_xandank.iff						
appearance/zucca_boar.sat		object/tangible/item/beast/converted_zucca_boar_decoration.iff	object/mobile/beast_master/bm_zucca_boar.iff	object/mobile/beast_master/bm_zucca_boar.iff	object/mobile/beast_master/bm_zucca_boar.iff	object/mobile/beast_master/bm_zucca_boar.iff	object/mobile/beast_master/bm_mutated_boar.iff	object/mobile/beast_master/bm_mutated_boar.iff		
appearance/mutant_acklay.sat	0	object/tangible/item/beast/converted_mutated_acklay_decoration.iff	object/mobile/beast_master/bm_mutated_acklay.iff	object/mobile/beast_master/bm_mutated_acklay.iff						
appearance/baz_nitch.sat		object/tangible/item/beast/converted_baz_nitch_decoration.iff	object/mobile/beast_master/bm_baz_nitch.iff	object/mobile/beast_master/bm_baz_nitch.iff						
appearance/pharple.sat		object/tangible/item/beast/converted_pharple_decoration.iff	object/mobile/beast_master/bm_pharple.iff	object/mobile/beast_master/bm_pharple.iff						
appearance/remmer.sat		object/tangible/item/beast/converted_remmer_decoration.iff	object/mobile/beast_master/bm_remmer.iff	object/mobile/beast_master/bm_remmer.iff
appearance/whisper_bird.sat		object/tangible/item/beast/converted_whisper_bird_decoration.iff	object/mobile/beast_master/bm_whisper_bird.iff	object/mobile/beast_master/bm_whisper_bird.iff
appearance/mouf.sat	0		object/mobile/beast_master/bm_mouf.iff	object/mobile/beast_master/bm_mouf.iff
appearance/minstyngar.sat	0		object/mobile/beast_master/bm_minstyngar.iff	object/mobile/beast_master/bm_minstyngar.iff
appearance/uller.sat	0		object/mobile/beast_master/bm_uller.iff	object/mobile/beast_master/bm_uller.iff
appearance/kittle.sat	0		object/mobile/beast_master/bm_kittle.iff	object/mobile/beast_master/bm_kittle.iff
appearance/webweaver.sat	0		object/mobile/beast_master/bm_webweaver.iff	object/mobile/beast_master/bm_webweaver.iff
appearance/nerf.sat	0		object/mobile/beast_master/bm_nerf.iff	object/mobile/beast_master/bm_nerf.iff
appearance/walluga.sat	0		object/mobile/beast_master/bm_walluga.iff	object/mobile/beast_master/bm_walluga.iff
appearance/tauntaun_hue.sat	0		object/mobile/beast_master/bm_tauntaun.iff	object/mobile/beast_master/bm_tauntaun.iff
appearance/beast_wampa.sat	0		object/mobile/beast_master/bm_wampa.iff	object/mobile/beast_master/bm_wampa.iff
