spawns	name	room	loc_x	loc_y	loc_z	yaw	script	mood	animation_mood	respawn_time	spawn_objvar	special_room	special_room_script	room_objvar	room_objvar_name	room_objvar_value
s	s	s	f	f	f	f	s	s	s	i	s	s	s	s	s	s
newbie_pilot_informer		foyer4	1.1	0.6	66.3	33			explain	300						
object/tangible/collection/col_jalopy_crate_05.iff		foyer4	-11.9	0.6	50.8	55										
