year	gift_self	gift_other	music	client_effect	grant_all_self	grant_all_other	comments
s	s	s	s	s	i[0]	i[0]	c
2005	"item_lifeday_gift_04_01,item_lifeday_gift_04_02,item_lifeday_gift_04_03,item_lifeday_gift_04_07"	"item_lifeday_gift_04_04,item_lifeday_gift_04_05,item_lifeday_gift_04_06"	sound/music_celebration_a.snd	clienteffect/pt_lifeday.cef	1		
2006	"item_lifeday_wreath_01_01,item_lifeday_mini_tree_01_01"	"item_lifeday_bunting_01_01,item_lifeday_incense_burner_01_01,item_lifeday_painting_01_01_01,item_lifeday_painting_02_01_01,item_lifeday_painting_03_01_01,item_lifeday_painting_04_01_01,item_lifeday_painting_05_01_01"	sound/music_celebration_a.snd	clienteffect/pt_lifeday.cef	1		
2007	"item_lifeday_gift_04_08,item_lifeday_gift_04_11"	"item_lifeday_gift_04_10,item_lifeday_gift_04_09,item_lifeday_gift_04_12,item_lifeday_gift_04_13"	sound/music_celebration_a.snd	clienteffect/pt_lifeday_forrest_grow.cef	1		
2008	"item_event_lifeday_holo_table,item_event_lifeday_family_painting"	"item_event_lifeday_proton_chair,item_event_lifeday_aquarium"	sound/music_celebration_a.snd	clienteffect/pt_lifeday_forrest_grow.cef			
2009	"item_lifeday_09_painting,item_lifeday_09_painting,item_lifeday_09_fireplace_02"	"item_lifeday_09_lamp_02,item_lifeday_09_lamp_01"	sound/music_celebration_a.snd	clienteffect/pt_lifeday_forrest_grow.cef			
